Liza’s Data Analysis Portfolio - Tidy Tuesday Exercise
…
eclipse_partial_2024 %>% count(state) %>% arrange(desc(n))

# A tibble: 52 × 2
   state     n
   <chr> <int>
 1 PA     1817
 2 CA     1611
 3 TX     1268
 4 IL     1210
 5 IA     1025
 6 FL      955
 7 MN      914
 8 MO      914
 9 NY      889
10 WI      807
# ℹ 42 more rows
…
